FSM_project/lift_controller/WAVEFORM.vcd
$date
	Tue Jun 16 18:36:50 2026
$end
$version
	Icarus Verilog
$end
$timescale
	1ps
$end
$scope module lift_schedule_tb $end
$var wire 3 ! state_dbg [2:0] $end
$var wire 1 " motor_up $end
$var wire 1 # motor_down $end
$var wire 1 $ door_open $end
$var wire 2 % current_floor [1:0] $end
$var parameter 32 & DOOR_TICKS $end
$var parameter 32 ' MOVE_TICKS $end
$var reg 1 ( clk $end
$var reg 1 ) door_obstruction $end
$var reg 1 * emergency_stop $end
$var reg 32 + fail_count [31:0] $end
$var reg 4 , floor_request [3:0] $end
$var reg 32 - pass_count [31:0] $end
$var reg 1 . rst $end
$var reg 32 / test_fail [31:0] $end
$var reg 32 0 tick_i [31:0] $end
$scope module dut $end
$var wire 1 ( clk $end
$var wire 1 ) door_obstruction $end
$var wire 1 * emergency_stop $end
$var wire 4 1 floor_request [3:0] $end
$var wire 1 . rst $end
$var wire 3 2 state_dbg [2:0] $end
$var parameter 32 3 DOOR_TICKS $end
$var parameter 32 4 FLOORS $end
$var parameter 32 5 MOVE_TICKS $end
$var parameter 3 6 S_DOOR_OPEN $end
$var parameter 3 7 S_EMERGENCY $end
$var parameter 3 8 S_EMERGENCY_RESCUE $end
$var parameter 3 9 S_IDLE $end
$var parameter 3 : S_MOVE_DOWN $end
$var parameter 3 ; S_MOVE_UP $end
$var reg 1 < above_req $end
$var reg 1 = below_req $end
$var reg 2 > current_floor [1:0] $end
$var reg 1 ? current_req $end
$var reg 1 @ door_done $end
$var reg 1 $ door_open $end
$var reg 2 A door_timer [1:0] $end
$var reg 1 # motor_down $end
$var reg 1 " motor_up $end
$var reg 1 B move_done $end
$var reg 2 C move_timer [1:0] $end
$var reg 1 D nearest_floor_reached $end
$var reg 1 E next_cur_req_dn $end
$var reg 1 F next_cur_req_up $end
$var reg 2 G next_floor_dn [1:0] $end
$var reg 2 H next_floor_up [1:0] $end
$var reg 4 I pending_new [3:0] $end
$var reg 4 J pending_q [3:0] $end
$var reg 1 K saved_dir $end
$var reg 3 L state_d [2:0] $end
$var reg 3 M state_q [2:0] $end
$var integer 32 N i [31:0] $end
$upscope $end
$scope task apply $end
$var reg 1 O em $end
$var reg 4 P req [3:0] $end
$upscope $end
$scope task chk $end
$var reg 1 Q exp $end
$var reg 1 R got $end
$var reg 128 S lbl [127:0] $end
$upscope $end
$scope task chk2 $end
$var reg 2 T exp [1:0] $end
$var reg 2 U got [1:0] $end
$var reg 128 V lbl [127:0] $end
$upscope $end
$scope task do_reset $end
$upscope $end
$scope task print_result $end
$var reg 32 W test_num [31:0] $end
$upscope $end
$scope task tick $end
$var reg 32 X n [31:0] $end
$upscope $end
$upscope $end
$enddefinitions $end
$comment Show the parameter values. $end
$dumpall
b10 ;
b11 :
b0 9
b100 8
b101 7
b1 6
b10 5
b100 4
b10 3
b10 '
b10 &
$end
#0
$dumpvars
b11 X
bx W
bx V
bx U
bx T
bx S
xR
xQ
bx P
xO
b100 N
bx M
b0 L
xK
bx J
bx I
bx H
bx G
xF
xE
xD
bx C
xB
bx A
x@
x?
bx >
0=
0<
bx 2
b0 1
b0 0
b0 /
1.
b0 -
b0 ,
b0 +
0*
0)
0(
bx %
x$
x#
x"
bx !
$end
#5000
0E
0F
b11 G
b1 H
0D
0@
0B
b100 N
0?
b0 I
0#
0"
0$
0K
b0 A
b0 C
b0 J
b0 %
b0 >
b0 !
b0 2
b0 M
b1 0
1(
#10000
0(
#15000
b10 0
1(
#20000
0(
#25000
b11 0
1(
#26000
b0 0
b1 X
0.
#30000
0(
#35000
b1 0
1(
#36000
b0 0
b11 X
1.
b1 W
b0 T
b0 U
b1100110011011000110111101101111011100100011110100110000 V
b101 -
0Q
0R
b11011010110111101110100011011110111001001011111011001000110111101110111011011100011110100110000 S
#40000
0(
#45000
b1 0
1(
#50000
0(
#55000
b10 0
1(
#60000
0(
#65000
b11 0
1(
#66000
b0 0
b1 X
0.
#70000
0(
#75000
b1 0
1(
#76000
0O
b1 P
#80000
b1 L
b100 N
1?
b1 I
b0 0
b10 X
b1 ,
b1 1
0(
#85000
1$
b100 N
b1 !
b1 2
b1 M
b1 J
b1 0
1(
#90000
0(
#95000
b0 L
1@
b100 N
b1 A
b0 J
b10 0
1(
#96000
b0 L
b100 N
0?
b0 I
b0 0
b11 X
b111 -
0Q
0R
b1101101011011110111010001101111011100100101111101110101011100000011110100110000 S
b0 ,
b0 1
#100000
0(
#105000
0@
b100 N
0$
b0 A
b0 !
b0 2
b0 M
b1 0
1(
#110000
0(
#115000
b10 0
1(
#120000
0(
#125000
b11 0
1(
#126000
b0 0
1.
b10 W
b1000 -
1Q
1R
b11000100110000101100011011010110010000001110100011011110010000001001001010001000100110001000101 S
#130000
0(
#135000
b1 0
1(
#140000
0(
#145000
b10 0
1(
#150000
0(
#155000
b11 0
1(
#156000
b0 0
b1 X
0.
#160000
0(
#165000
b1 0
1(
#166000
b110 P
#170000
b10 L
1F
1<
b100 N
b110 I
b0 0
b10 X
b110 ,
b110 1
0(
#175000
1"
b100 N
1<
b10 !
b10 2
b10 M
b110 J
b1 0
1(
#180000
0(
#185000
b1 L
1D
1B
b100 N
1<
b1 C
b10 0
1(
#186000
b1 L
b100 N
1<
b0 0
b1001 -
b1101101011011110111010001101111011100100101111101110101011100000011110100110001 S
b0 ,
b0 1
#190000
0(
#195000
b0 G
b10 H
0D
0B
b100 N
1<
1?
1$
0"
b0 C
b1 %
b1 >
b1 !
b1 2
b1 M
b1 0
1(
#200000
0(
#205000
b10 L
1@
b100 N
1<
0?
b100 I
b1 A
b100 J
b10 0
1(
#206000
b0 0
b1 X
b1 T
b1 U
b11000110111010101110010011100100110010101101110011101000101111101100110011011000110111101101111011100100011110100110001 V
b1011 -
b1110010010111110110111101110000011001010110111000100000011000010111010000100000011001100110110001101111011011110111001000110001 S
#210000
0(
#215000
0@
b100 N
1<
1"
0$
b0 A
b10 !
b10 2
b10 M
b1 0
1(
#216000
b0 0
b10 X
b1100 -
b1101111011100100101111101110101011100000010000001100110011011110111001000100000011001100110110001101111011011110111001000110010 S
#220000
0(
#225000
b1 L
1D
1B
b100 N
1<
b1 C
b1 0
1(
#230000
0(
#235000
0F
b1 G
b11 H
0D
0B
b100 N
0<
1?
1$
0"
b0 C
b10 %
b10 >
b1 !
b1 2
b1 M
b10 0
1(
#236000
b0 0
b100 X
b10 T
b10 U
b11000110111010101110010011100100110010101101110011101000101111101100110011011000110111101101111011100100011110100110010 V
b1110 -
b1110010010111110110111101110000011001010110111000100000011000010111010000100000011001100110110001101111011011110111001000110010 S
#240000
0(
#245000
b0 L
1@
b100 N
0?
b0 I
b1 A
b0 J
b1 0
1(
#250000
0(
#255000
0@
b100 N
0$
b0 A
b0 !
b0 2
b0 M
b10 0
1(
#260000
0(
#265000
b11 0
1(
#270000
0(
#275000
b100 0
1(
#276000
b0 0
b11 X
1.
b11 W
b1111 -
b1000100010011000100010100100000011000010110011001110100011001010111001000100000011100110110010101110010011101100110010101100100 S
#280000
0(
#285000
b11 G
b1 H
b100 N
b0 %
b0 >
b1 0
1(
#290000
0(
#295000
b10 0
1(
#300000
0(
#305000
b11 0
1(
#306000
b0 0
b1 X
0.
#310000
0(
#315000
b1 0
1(
#316000
b1 P
#320000
b1 L
b100 N
1?
b1 I
b0 0
b10 X
b1 ,
b1 1
0(
#325000
1$
b100 N
b1 !
b1 2
b1 M
b1 J
b1 0
1(
#330000
0(
#335000
b0 L
1@
b100 N
b1 A
b0 J
b10 0
1(
#336000
b1 L
0@
b100 N
0?
b0 I
b0 0
b101 X
1)
b0 ,
b0 1
#340000
0(
#345000
b1 0
1(
#350000
0(
#355000
b10 0
1(
#360000
0(
#365000
b11 0
1(
#370000
0(
#375000
b100 0
1(
#380000
0(
#385000
b101 0
1(
#386000
b0 L
1@
b100 N
b0 0
b11 X
0)
b10000 -
b110010001101111011011110111001000100000011010000110010101101100011001000010000001101111011100000110010101101110 S
#390000
0(
#395000
0@
b100 N
0$
b0 A
b0 !
b0 2
b0 M
b1 0
1(
#400000
0(
#405000
b10 0
1(
#410000
0(
#415000
b11 0
1(
#416000
b0 0
1.
b100 W
b10001 -
0Q
0R
b100000011000110110110001101111011100110110010101100100001000000110111101101110001000000110001101101100011001010110000101110010 S
#420000
0(
#425000
b1 0
1(
#430000
0(
#435000
b10 0
1(
#440000
0(
#445000
b11 0
1(
#446000
b0 0
b1 X
0.
#450000
0(
#455000
b1 0
1(
#456000
b100 P
#460000
b10 L
1<
b100 N
b100 I
b0 0
b10 X
b100 ,
b100 1
0(
#465000
1"
b100 N
1<
b10 !
b10 2
b10 M
b100 J
b1 0
1(
#470000
0(
#475000
1D
1B
b100 N
1<
b1 C
b10 0
1(
#476000
b100 N
1<
b0 0
b0 ,
b0 1
#480000
0(
#485000
1F
b0 G
b10 H
0D
0B
b100 N
1<
b0 C
b1 %
b1 >
b1 0
1(
#490000
0(
#495000
b1 L
1D
1B
b100 N
1<
b1 C
b10 0
1(
#496000
b0 0
#500000
0(
#505000
0F
b1 G
b11 H
0D
0B
b100 N
0<
1?
1$
0"
b0 C
b10 %
b10 >
b1 !
b1 2
b1 M
b1 0
1(
#510000
0(
#515000
b0 L
1@
b100 N
0?
b0 I
b1 A
b0 J
b10 0
1(
#516000
b1 P
b10011 -
1Q
1R
b1110010010111110110111101110000011001010110111000100000011000010111010000100000011001100110110001101111011011110111001000110010 S
#520000
b11 L
1=
b100 N
b1 I
b0 0
b1 X
b1 ,
b1 1
0(
#525000
1#
0$
0@
b100 N
1=
b0 A
b11 !
b11 2
b11 M
b1 J
b1 0
1(
#526000
b100 N
1=
b0 0
b11 X
b0 ,
b0 1
#530000
0(
#535000
1D
1B
b100 N
1=
b1 C
b1 0
1(
#540000
0(
#545000
1E
b0 G
b10 H
0D
0B
b100 N
1=
b0 C
b1 %
b1 >
b10 0
1(
#550000
0(
#555000
b1 L
1D
1B
b100 N
1=
b1 C
b11 0
1(
#556000
b0 0
1.
b101 W
b10100 -
b11011010110111101110100011011110111001001011111011001000110111101110111011011100011110100110001 S
#560000
0(
#565000
0E
b11 G
b1 H
0D
0B
b100 N
0=
b0 I
0#
b0 L
b0 C
b0 J
b0 %
b0 >
b0 !
b0 2
b0 M
b1 0
1(
#570000
0(
#575000
b10 0
1(
#580000
0(
#585000
b11 0
1(
#586000
b0 0
b1 X
0.
#590000
0(
#595000
b1 0
1(
#596000
1O
b0 P
#600000
b101 L
b0 0
b10 X
1*
0(
#605000
1$
b101 !
b101 2
b101 M
b1 0
1(
#610000
0(
#615000
b10 0
1(
#616000
1Q
1R
b11000 -
b10001010100110101000101010100100100011101000101010011100100001101011001001000000111001101110100011000010111010001100101 S
#620000
b0 L
b0 0
0*
0(
#625000
0$
b0 !
b0 2
b0 M
b1 0
1(
#630000
0(
#635000
b10 0
1(
#636000
b0 0
b11 X
1.
b110 W
b11001 -
b1110010011001010110110001100101011000010111001101100101011001000010000001110100011011110010000001001001010001000100110001000101 S
#640000
0(
#645000
b1 0
1(
#650000
0(
#655000
b10 0
1(
#660000
0(
#665000
b11 0
1(
#666000
b0 0
b1 X
0.
#670000
0(
#675000
b1 0
1(
#676000
0O
b100 P
#680000
b10 L
1<
b100 N
b100 I
b0 0
b10 X
b100 ,
b100 1
0(
#685000
1"
b100 N
1<
b10 !
b10 2
b10 M
b100 J
b1 0
1(
#690000
0(
#695000
1D
1B
b100 N
1<
b1 C
b10 0
1(
#696000
b100 N
1<
1O
b0 P
b11010 -
b1110101011100000010000001100100011101010111001001101001011011100110011100100000011101000111001001100001011101100110010101101100 S
b0 ,
b0 1
#700000
b100 L
b0 0
1*
0(
#705000
0D
0B
b100 N
1<
1"
b100 L
b0 C
1K
b100 !
b100 2
b100 M
b1 0
1(
#710000
0(
#715000
b101 L
1D
1B
b100 N
1<
b1 C
b10 0
1(
#716000
b0 0
0Q
0R
b11100 -
b1110000011001010110111000111101001100000010000001101101011010010110010000100000011100100110010101110011011000110111010101100101 S
#720000
0(
#725000
1F
b0 G
b10 H
0D
0B
b100 N
1<
1$
0"
b0 C
b1 %
b1 >
b101 !
b101 2
b101 M
b1 0
1(
#730000
0(
#735000
b10 0
1(
#736000
b11110 -
1Q
1R
b1101110001111010011000100100000011010010110111000100000010001010100110101000101010100100100011101000101010011100100001101011001 S
#740000
b0 L
b0 0
b110 X
0*
0(
#745000
0$
b10 L
b0 !
b0 2
b0 M
b1 0
1(
#750000
0(
#755000
1"
b10 !
b10 2
b10 M
b10 0
1(
#760000
0(
#765000
b1 L
1D
1B
b100 N
1<
b1 C
b11 0
1(
#770000
0(
#775000
0F
b1 G
b11 H
0D
0B
b100 N
0<
1?
1$
0"
b0 C
b10 %
b10 >
b1 !
b1 2
b1 M
b100 0
1(
#780000
0(
#785000
b0 L
1@
b100 N
0?
b0 I
b1 A
b0 J
b101 0
1(
#790000
0(
#795000
0@
b100 N
0$
b0 A
b0 !
b0 2
b0 M
b110 0
1(
#796000
b111 W
b11111 -
b1110010011001010110110001100101011000010111001101100101011001000010000001110100011011110010000001001001010001000100110001000101 S
