3_Intermediate_Combinational/Carry_Lookahead_Adder/Carry_look_ahead_adder.vcd
$date
	Mon Jun 15 07:39:51 2026
$end
$version
	Icarus Verilog
$end
$timescale
	1s
$end
$scope module cla_tb $end
$var wire 4 ! s [3:0] $end
$var wire 1 " cout $end
$var parameter 32 # N $end
$var reg 4 $ a [3:0] $end
$var reg 4 % b [3:0] $end
$var reg 1 & cin $end
$var integer 32 ' i [31:0] $end
$scope module uut $end
$var wire 4 ( a [3:0] $end
$var wire 4 ) b [3:0] $end
$var wire 1 & cin $end
$var wire 4 * g [3:0] $end
$var wire 4 + p [3:0] $end
$var wire 4 , s [3:0] $end
$var wire 1 " cout $end
$var wire 5 - c [4:0] $end
$var parameter 32 . N $end
$scope begin cla[0] $end
$var parameter 2 / i $end
$upscope $end
$scope begin cla[1] $end
$var parameter 2 0 i $end
$upscope $end
$scope begin cla[2] $end
$var parameter 3 1 i $end
$upscope $end
$scope begin cla[3] $end
$var parameter 3 2 i $end
$upscope $end
$upscope $end
$upscope $end
$enddefinitions $end
$comment Show the parameter values. $end
$dumpall
b11 2
b10 1
b1 0
b0 /
b100 .
b100 #
$end
#0
$dumpvars
b11 -
b110 ,
b101 +
b0 *
b1 )
b100 (
b0 '
1&
b1 %
b100 $
0"
b110 !
$end
#10
1"
b11111 -
b1 !
b1 ,
b1110 +
b1 *
b1101 %
b1101 )
b11 $
b11 (
b1 '
#20
0"
b1000 !
b1000 ,
b1111 -
b111 +
b0 *
b10 %
b10 )
b101 $
b101 (
b10 '
#30
1"
b11111 -
b100 !
b100 ,
b1011 +
b100 *
b110 %
b110 )
b1101 $
b1101 (
b11 '
#40
b11011 -
b1010 !
b1010 ,
b1 +
b1100 *
b1100 %
b1100 )
b100 '
#50
0"
b1011 !
b1011 ,
b11 +
b100 *
b1000 -
0&
b101 %
b101 )
b110 $
b110 (
b101 '
#60
b1100 !
b1100 ,
b1110 -
b10 +
b101 *
b111 %
b111 )
b101 $
b101 (
b110 '
#70
1"
b1 !
b1 ,
b11100 -
b1101 +
b10 *
b10 %
b10 )
b1111 $
b1111 (
b111 '
#80
0"
b1101 !
b1101 ,
b0 -
b0 *
b101 %
b101 )
b1000 $
b1000 (
b1000 '
#90
1"
b1011 !
b1011 ,
b0 +
b1101 *
b11011 -
1&
b1101 %
b1101 )
b1101 $
b1101 (
b1001 '
#100
0"
b1101 !
b1101 ,
b1001 +
b10 *
b100 -
0&
b1010 %
b1010 )
b11 $
b11 (
b1010 '
#110
b1011 !
b1011 ,
b1010 +
b0 *
b1 -
1&
b0 $
b0 (
b1011 '
#120
b1010 !
b1010 ,
b1111 -
b101 +
b10 *
b11 %
b11 )
b110 $
b110 (
b1100 '
#130
0"
b111 -
b1111 !
b1111 ,
b1000 +
b11 *
b1011 %
b1011 )
b11 $
b11 (
b1101 '
#140
1"
b1 !
b1 ,
b11101 -
b1100 +
b10 *
b1110 %
b1110 )
b10 $
b10 (
b1110 '
#150
b10 !
b10 ,
b11 *
b11110 -
0&
b11 %
b11 )
b1111 $
b1111 (
b1111 '
#160
b110 !
b110 ,
b10000 -
b110 +
b1000 *
b1100 %
b1100 )
b1010 $
b1010 (
b10000 '
#170
0"
b1011 !
b1011 ,
b0 -
b1011 +
b0 *
b1 %
b1 )
b10001 '
#180
1"
b10 !
b10 ,
b1 +
b1000 *
b10011 -
1&
b1001 %
b1001 )
b1000 $
b1000 (
b10010 '
#190
b1100 !
b1100 ,
0"
b0 +
b110 *
b1100 -
0&
b110 %
b110 )
b110 $
b110 (
b10011 '
#200
1"
b111 !
b111 ,
b110 +
b1000 *
b10001 -
1&
b1010 %
b1010 )
b1100 $
b1100 (
b10100 '
#210
0"
b111 !
b111 ,
b11 -
b100 +
b1 *
b101 %
b101 )
b1 $
b1 (
b10101 '
#220
1"
b101 !
b101 ,
b1 +
b1010 *
b10100 -
0&
b1010 %
b1010 )
b1011 $
b1011 (
b10110 '
#230
0"
b111 !
b111 ,
b100 +
b1 *
b11 -
1&
b1 %
b1 )
b101 $
b101 (
b10111 '
#240
0"
b1111 !
b1111 ,
b1 -
b1110 +
b0 *
b1100 %
b1100 )
b10 $
b10 (
b11000 '
#250
1"
b1000 !
b1000 ,
b11111 -
b111 +
b1000 *
b1000 %
b1000 )
b1111 $
b1111 (
b11001 '
#260
b1100 !
b1100 ,
b11 +
b1100 *
b1100 %
b1100 )
b11010 '
#270
b10 !
b10 ,
b0 +
b1001 *
b10010 -
0&
b1001 %
b1001 )
b1001 $
b1001 (
b11011 '
#280
0"
b1000 !
b1000 ,
b1110 -
b110 +
b1 *
b1 %
b1 )
b111 $
b111 (
b11100 '
#290
0"
b1110 !
b1110 ,
b0 -
b1110 +
b0 *
b10 %
b10 )
b1100 $
b1100 (
b11101 '
#300
1"
b100 !
b100 ,
b11110 -
b1010 +
b101 *
b1101 %
b1101 )
b111 $
b111 (
b11110 '
#310
b1100 !
b1100 ,
b11 +
b1100 *
b11111 -
1&
b1110 $
b1110 (
b11111 '
#320
1"
b11 !
b11 ,
b11111 -
b1100 +
b11 *
b11 %
b11 )
b1111 $
b1111 (
b100000 '
#330
b100 !
b100 ,
b10111 -
b11 +
b1000 *
b1011 %
b1011 )
b1000 $
b1000 (
b100001 '
#340
b1001 !
b1001 ,
b101 +
b1010 *
b11100 -
0&
b1010 %
b1010 )
b1111 $
b1111 (
b100010 '
#350
1"
b100 !
b100 ,
b11100 -
b1000 +
b110 *
b1110 %
b1110 )
b110 $
b110 (
b100011 '
#360
1"
b1 !
b1 ,
b1100 +
b10 *
b11101 -
1&
b110 %
b110 )
b1010 $
b1010 (
b100100 '
#370
b11 !
b11 ,
b11111 -
b11 *
b1111 %
b1111 )
b11 $
b11 (
b100101 '
#380
b100 !
b100 ,
b11111 -
b1011 +
b100 *
b100 %
b100 )
b1111 $
b1111 (
b100110 '
#390
1"
b1 !
b1 ,
b1101 +
b10 *
b11100 -
0&
b110 %
b110 )
b1011 $
b1011 (
b100111 '
#400
b110 !
b110 ,
b10010 -
b100 +
b1001 *
b1101 %
b1101 )
b1001 $
b1001 (
b101000 '
#410
0"
b1011 !
b1011 ,
b0 +
b101 *
b1011 -
1&
b101 %
b101 )
b101 $
b101 (
b101001 '
#420
0"
b1101 !
b1101 ,
b1101 +
b0 *
b0 -
0&
b100 %
b100 )
b1001 $
b1001 (
b101010 '
#430
1"
b101 !
b101 ,
b10100 -
b1 +
b1010 *
b1011 %
b1011 )
b1010 $
b1010 (
b101011 '
#440
b111 !
b111 ,
b110 +
b1000 *
b10001 -
1&
b1010 %
b1010 )
b1100 $
b1100 (
b101100 '
#450
0"
b1001 !
b1001 ,
b101 +
b10 *
b1100 -
0&
b110 %
b110 )
b11 $
b11 (
b101101 '
#460
1"
b11100 -
b1 !
b1 ,
b1101 +
b1010 %
b1010 )
b111 $
b111 (
b101110 '
#470
b1 !
b1 ,
b10000 -
b1 +
b1000 *
b1001 %
b1001 )
b1000 $
b1000 (
b101111 '
#480
0"
b111 !
b111 ,
b0 -
b111 +
b0 *
b11 %
b11 )
b100 $
b100 (
b110000 '
#490
1"
b101 !
b101 ,
b10 +
b1001 *
b10111 -
1&
b1011 %
b1011 )
b1001 $
b1001 (
b110001 '
#500
b110 !
b110 ,
b100 +
b10010 -
0&
b1101 %
b1101 )
b110010 '
#510
1"
b1 !
b1 ,
b1100 +
b10 *
b11101 -
1&
b110 %
b110 )
b1010 $
b1010 (
b110011 '
#520
0"
b1011 !
b1011 ,
b1001 -
b10 +
b100 *
b100 %
b100 )
b110 $
b110 (
b110100 '
#530
0"
b1101 !
b1101 ,
b1101 +
b0 *
b0 -
0&
b1001 $
b1001 (
b110101 '
#540
1"
b110 !
b110 ,
b101 +
b1000 *
b10011 -
1&
b1101 %
b1101 )
b1000 $
b1000 (
b110110 '
#550
b110 !
b110 ,
b110 +
b10000 -
0&
b1000 %
b1000 )
b1110 $
b1110 (
b110111 '
#560
b110 !
b110 ,
b10010 -
b100 +
b1001 *
b1001 %
b1001 )
b1101 $
b1101 (
b111000 '
#570
1"
b1 !
b1 ,
b1100 +
b10 *
b11101 -
1&
b1010 %
b1010 )
b110 $
b110 (
b111001 '
#580
0"
b111 !
b111 ,
b1 -
b110 +
b0 *
b0 %
b0 )
b111010 '
#590
1"
b1000 !
b1000 ,
b100 +
b1010 *
b11100 -
0&
b1110 %
b1110 )
b1010 $
b1010 (
b111011 '
#600
1"
b0 !
b0 ,
b1111 +
b0 *
b11111 -
1&
b1010 %
b1010 )
b101 $
b101 (
b111100 '
#610
0"
b1101 !
b1101 ,
b1 +
b110 *
b1100 -
0&
b110 %
b110 )
b111 $
b111 (
b111101 '
#620
b0 +
b1101 -
1&
b110 $
b110 (
b111110 '
#630
1"
b10 !
b10 ,
b1010 +
b100 *
b11000 -
0&
b1100 $
b1100 (
b111111 '
#640
b1010 !
b1010 ,
b101 +
b1010 *
b11111 -
1&
b1011 %
b1011 )
b1110 $
b1110 (
b1000000 '
#650
b100 !
b100 ,
b10111 -
b11 +
b1000 *
b1010 %
b1010 )
b1001 $
b1001 (
b1000001 '
#660
0"
b1000 !
b1000 ,
b110 +
b1 *
b1110 -
0&
b1 %
b1 )
b111 $
b111 (
b1000010 '
#670
b110 !
b110 ,
b101 +
b0 *
b11 -
1&
b101 %
b101 )
b0 $
b0 (
b1000011 '
#680
b1011 !
b1011 ,
b1000 +
b1 *
b1 %
b1 )
b1001 $
b1001 (
b1000100 '
#690
1"
b100 !
b100 ,
b10111 -
b11 +
b1000 *
b1011 %
b1011 )
b1000 $
b1000 (
b1000101 '
#700
b110 !
b110 ,
b110 +
b10000 -
0&
b1010 %
b1010 )
b1100 $
b1100 (
b1000110 '
#710
b10 !
b10 ,
b1 +
b10011 -
1&
b1001 %
b1001 )
b1000 $
b1000 (
b1000111 '
#720
1"
b101 !
b101 ,
b11101 -
b1000 +
b110 *
b110 %
b110 )
b1110 $
b1110 (
b1001000 '
#730
b101 !
b101 ,
b10101 -
b0 +
b1010 *
b1010 %
b1010 )
b1010 $
b1010 (
b1001001 '
#740
b111 !
b111 ,
b10001 -
b110 +
b1000 *
b1000 %
b1000 )
b1110 $
b1110 (
b1001010 '
#750
b11 !
b11 ,
b10 +
b1010 %
b1010 )
b1000 $
b1000 (
b1001011 '
#760
1"
b10 !
b10 ,
b1100 +
b11 *
b11110 -
0&
b111 %
b111 )
b1011 $
b1011 (
b1001100 '
#770
0"
b1111 !
b1111 ,
b1110 +
b0 *
b1 -
1&
b100 %
b100 )
b1010 $
b1010 (
b1001101 '
#780
b111 !
b111 ,
b110 +
b10 $
b10 (
b1001110 '
#790
1"
b0 !
b0 ,
b1100 +
b10 *
b11100 -
0&
b1010 %
b1010 )
b110 $
b110 (
b1001111 '
#800
0"
b1111 !
b1111 ,
b0 -
b1111 +
b0 *
b1101 %
b1101 )
b10 $
b10 (
b1010000 '
#810
b1110 +
b1 -
1&
b1010 %
b1010 )
b100 $
b100 (
b1010001 '
#820
1"
b11111 -
b0 !
b0 ,
b1111 +
b1110 %
b1110 )
b1 $
b1 (
b1010010 '
#830
b1011 !
b1011 ,
b100 +
b1011 *
b1111 %
b1111 )
b1011 $
b1011 (
b1010011 '
#840
0"
b1100 !
b1100 ,
b1111 -
b11 +
b100 *
b101 %
b101 )
b110 $
b110 (
b1010100 '
#850
1"
b11 !
b11 ,
b1000 *
b10000 -
0&
b1000 %
b1000 )
b1011 $
b1011 (
b1010101 '
#860
0"
b1101 !
b1101 ,
b100 -
b1001 +
b10 *
b10 %
b10 )
b1010110 '
#870
1"
b1000 !
b1000 ,
b11110 -
b110 +
b1001 *
b1011 %
b1011 )
b1101 $
b1101 (
b1010111 '
#880
b1011 !
b1011 ,
b11000 -
b11 +
b1100 *
b1101 %
b1101 )
b1110 $
b1110 (
b1011000 '
#890
0"
b1001 !
b1001 ,
b0 -
b1001 +
b0 *
b1 %
b1 )
b1000 $
b1000 (
b1011001 '
#900
b1100 !
b1100 ,
b110 -
b1010 +
b1 *
b1011 %
b1011 )
b1 $
b1 (
b1011010 '
#910
b1010 !
b1010 ,
b101 +
b10 *
b1111 -
1&
b110 %
b110 )
b11 $
b11 (
b1011011 '
#920
b111 !
b111 ,
b1 -
b110 +
b0 *
b100 %
b100 )
b10 $
b10 (
b1011100 '
#930
b1010 !
b1010 ,
b1010 +
b0 -
0&
b10 %
b10 )
b1000 $
b1000 (
b1011101 '
#940
b1111 !
b1111 ,
b1100 +
b1 *
b11 -
1&
b101 %
b101 )
b1001 $
b1001 (
b1011110 '
#950
b1100 !
b1100 ,
b1010 +
b110 -
0&
b1 %
b1 )
b1011 $
b1011 (
b1011111 '
#960
b1001 !
b1001 ,
b110 +
b1111 -
1&
b111 $
b111 (
b1100000 '
#970
0"
b1100 !
b1100 ,
b1100 +
b0 *
b0 -
0&
b1000 %
b1000 )
b100 $
b100 (
b1100001 '
#980
b110 !
b110 ,
b110 +
b10 %
b10 )
b1100010 '
#990
b111 !
b111 ,
b100 +
b1 *
b11 -
1&
b101 %
b101 )
b1 $
b1 (
b1100011 '
#1000
b1100100 '
